*** Darwin 34x37 ***
Turn = 0.
  0123456789012345678901234567890123456
0 ...........................h.........
1 ....f................................
2 ........t.....t......................
3 ..........t........................r.
4 .....................................
5 .....................................
6 .....................................
7 .....................................
8 .....................................
9 ........r............................
0 ..........r..........................
1 ...............................f.....
2 .....................................
3 .....................................
4 ......h............t.................
5 ...................................t.
6 .....................................
7 .....................................
8 .....................................
9 .................................h...
0 ................t....................
1 .....................................
2 .....................................
3 .....................................
4 .....................................
5 .....................................
6 .....................................
7 .f.......................h...........
8 ..................r..................
9 .....................................
0 .....................................
1 ...........t.........................
2 .....................................
3 .....................................

Turn = 3.
  0123456789012345678901234567890123456
0 ...........................h.........
1 ....f................................
2 ........t.....t......................
3 ..........t..........................
4 ....................................r
5 .....................................
6 ........r............................
7 .....................................
8 .....................................
9 .....................................
0 .............r.......................
1 ...............................f.....
2 .....................................
3 .....................................
4 ...................t.................
5 ...................................t.
6 .................................h...
7 ......h..............................
8 .....................................
9 .....................................
0 ................t....................
1 .....................................
2 .....................................
3 .....................................
4 .........................h...........
5 ..................r..................
6 .....................................
7 .f...................................
8 .....................................
9 .....................................
0 .....................................
1 ...........t.........................
2 .....................................
3 .....................................

Turn = 6.
  0123456789012345678901234567890123456
0 ...........................h.........
1 ....f................................
2 ........t.....t......................
3 ........r.t..........................
4 .....................................
5 .....................................
6 .....................................
7 ....................................r
8 .....................................
9 .....................................
0 ................r....................
1 ...............................f.....
2 .....................................
3 .................................h...
4 ...................t.................
5 ...................................t.
6 .....................................
7 .....................................
8 .....................................
9 .....................................
0 ......h.........t....................
1 .........................h...........
2 ..................r..................
3 .....................................
4 .....................................
5 .....................................
6 .....................................
7 .f...................................
8 .....................................
9 .....................................
0 .....................................
1 ...........t.........................
2 .....................................
3 .....................................

*** Darwin 15x44 ***
Turn = 0.
  01234567890123456789012345678901234567890123
0 ............................................
1 ............................................
2 ............................................
3 ....t..........................f............
4 ............................r...............
5 ..............................h.............
6 .....................................tr.....
7 ............................................
8 ............................................
9 ...............f...................f........
0 ..............................t.............
1 ............................................
2 ................h...........................
3 ............................................
4 ........h...................................

Turn = 12.
  01234567890123456789012345678901234567890123
0 ................h..................r........
1 ............................................
2 ............................................
3 ....t..........................f............
4 ............................................
5 ..........................................h.
6 ............................................
7 ............................................
8 ............................................
9 ...............f...................f........
0 ..............................t.............
1 ............................................
2 ............................................
3 ............................................
4 h...................................rr......

*** Darwin 32x26 ***
Turn = 0.
  01234567890123456789012345
0 ..........................
1 ..........................
2 ..........................
3 ..........................
4 .t.t............f.........
5 ..........................
6 ..........................
7 ..........................
8 ..........................
9 ................r.........
0 ..........................
1 ............t.............
2 ..........................
3 ..........................
4 ..........................
5 ..........................
6 ..........................
7 ..........................
8 ..........................
9 ..........................
0 ..........................
1 ..........................
2 ..........................
3 ..................t.......
4 ..........................
5 .....t....................
6 .....................t...h
7 ..........................
8 ..........................
9 ..........................
0 ..................t.......
1 ..........................

Turn = 5.
  01234567890123456789012345
0 ..........................
1 ..........................
2 ..........................
3 ..........................
4 .t.t............f.........
5 ..........................
6 ..........................
7 ..........................
8 ..........................
9 ..........................
0 ..........................
1 ............t.............
2 ..........................
3 ..........................
4 ................r.........
5 ..........................
6 ..........................
7 ..........................
8 ..........................
9 ..........................
0 ..........................
1 ..........................
2 ..........................
3 ..................t.......
4 ..........................
5 .....t....................
6 .....................t....
7 ..........................
8 ..........................
9 ..........................
0 ..................t.......
1 .........................h

*** Darwin 15x38 ***
Turn = 0.
  01234567890123456789012345678901234567
0 ......................................
1 ............................t.....r...
2 ....................h.................
3 .....................................f
4 ......................................
5 f.....................................
6 ..................h..................t
7 .h....................................
8 ...........................r........r.
9 ....f.................................
0 ....................r.................
1 ..f...................................
2 .........h............................
3 .........................t.....h......
4 ......................h...............

Turn = 4.
  01234567890123456789012345678901234567
0 ....................h.................
1 ............................t.r.......
2 ......................................
3 .....................................f
4 ......................................
5 f.....................................
6 ..............h......................t
7 .....h................................
8 .........h.............r........r.....
9 ....f.................................
0 ......................................
1 ..f...................................
2 ......................................
3 .........................t.h..........
4 ....................r.h...............

Turn = 8.
  01234567890123456789012345678901234567
0 ....................h.......rr........
1 ......................................
2 ......................................
3 .....................................f
4 .........h............................
5 f.....................................
6 ..........h..........................t
7 .........h............................
8 ...................r........r.........
9 ....f.................................
0 ......................................
1 ..f...................................
2 ......................................
3 .........................tt...........
4 .................r....h...............

Turn = 12.
  01234567890123456789012345678901234567
0 .........h..........h...........r.....
1 ......................................
2 ............................r.........
3 .....................................f
4 ......................................
5 f.....................................
6 ......h..............................t
7 .............h........................
8 ...............r........r.............
9 ....f.................................
0 ......................................
1 ..f...................................
2 ......................................
3 .........................tt...........
4 .............r........h...............

Turn = 16.
  01234567890123456789012345678901234567
0 .........h..........h...............r.
1 ......................................
2 ......................................
3 .....................................f
4 ......................................
5 f.....................................
6 ..h.........................r........t
7 .................h....................
8 ...........r........r.................
9 ....f.................................
0 ......................................
1 ..f...................................
2 ......................................
3 .........................tt...........
4 .........r............h...............

Turn = 20.
  01234567890123456789012345678901234567
0 .........h..........h...............r.
1 ......................................
2 ......................................
3 .....................................f
4 ......................................
5 f.....................................
6 h....................................t
7 .....................h................
8 .......r........r.....................
9 ....f.................................
0 ............................r.........
1 ..f...................................
2 ......................................
3 .........................tt...........
4 .....r................h...............

*** Darwin 47x19 ***
Turn = 0.
  0123456789012345678
0 ...................
1 ...................
2 ...................
3 ...................
4 ...................
5 ...................
6 ...................
7 ...................
8 ...................
9 ...................
0 ...................
1 ...................
2 ...................
3 ...................
4 ...................
5 ...................
6 ...................
7 ...................
8 ...................
9 ...................
0 ...................
1 ...................
2 ...................
3 ...................
4 ...................
5 ...................
6 ...................
7 ...................
8 ..............r....
9 ...................
0 ...................
1 ...................
2 ...................
3 ...................
4 ...................
5 ...................
6 ...................
7 ...................
8 ...................
9 ...................
0 ...................
1 ...................
2 ...................
3 ...................
4 ...................
5 ...................
6 ...................

Turn = 2.
  0123456789012345678
0 ...................
1 ...................
2 ...................
3 ...................
4 ...................
5 ...................
6 ...................
7 ...................
8 ...................
9 ...................
0 ...................
1 ...................
2 ...................
3 ...................
4 ...................
5 ...................
6 ...................
7 ...................
8 ...................
9 ...................
0 ...................
1 ...................
2 ...................
3 ...................
4 ...................
5 ...................
6 ...................
7 ...................
8 ................r..
9 ...................
0 ...................
1 ...................
2 ...................
3 ...................
4 ...................
5 ...................
6 ...................
7 ...................
8 ...................
9 ...................
0 ...................
1 ...................
2 ...................
3 ...................
4 ...................
5 ...................
6 ...................

*** Darwin 31x29 ***
Turn = 0.
  01234567890123456789012345678
0 .............................
1 .............................
2 ...........f.................
3 .............................
4 .............................
5 ...................f.........
6 .............................
7 ...........................f.
8 .............................
9 .............................
0 .............................
1 .............................
2 .............................
3 ........................r....
4 .............................
5 .............................
6 .............................
7 .............................
8 .............................
9 .............................
0 ..........................r..
1 .............................
2 .............................
3 .............................
4 .............................
5 ...................r.........
6 .............................
7 .............................
8 .............................
9 .............................
0 .............................

Turn = 1.
  01234567890123456789012345678
0 .............................
1 .............................
2 ...........f.................
3 .............................
4 .............................
5 ...................f.........
6 .............................
7 ...........................f.
8 .............................
9 .............................
0 .............................
1 .............................
2 .............................
3 .........................r...
4 .............................
5 .............................
6 .............................
7 .............................
8 .............................
9 ..........................r..
0 .............................
1 .............................
2 .............................
3 .............................
4 ...................r.........
5 .............................
6 .............................
7 .............................
8 .............................
9 .............................
0 .............................

Turn = 2.
  01234567890123456789012345678
0 .............................
1 .............................
2 ...........f.................
3 .............................
4 .............................
5 ...................f.........
6 .............................
7 ...........................f.
8 .............................
9 .............................
0 .............................
1 .............................
2 .............................
3 ..........................r..
4 .............................
5 .............................
6 .............................
7 .............................
8 ..........................r..
9 .............................
0 .............................
1 .............................
2 .............................
3 ...................r.........
4 .............................
5 .............................
6 .............................
7 .............................
8 .............................
9 .............................
0 .............................

*** Darwin 34x45 ***
Turn = 0.
  012345678901234567890123456789012345678901234
0 .............................................
1 .............................................
2 .............................................
3 .............................................
4 .............................................
5 ...........t.................................
6 .............................................
7 .............................................
8 .............................................
9 .............................................
0 .............................................
1 .............................................
2 .............................................
3 .............................................
4 .............................................
5 .............................................
6 .............................................
7 .............................................
8 .............................................
9 .............................................
0 .............................................
1 .............................................
2 .............................................
3 .............................................
4 .............................................
5 .............................................
6 .............................................
7 .............................................
8 .............................................
9 .............................................
0 .............................................
1 .............................................
2 .............................................
3 .............................................

Turn = 5.
  012345678901234567890123456789012345678901234
0 .............................................
1 .............................................
2 .............................................
3 .............................................
4 .............................................
5 ...........t.................................
6 .............................................
7 .............................................
8 .............................................
9 .............................................
0 .............................................
1 .............................................
2 .............................................
3 .............................................
4 .............................................
5 .............................................
6 .............................................
7 .............................................
8 .............................................
9 .............................................
0 .............................................
1 .............................................
2 .............................................
3 .............................................
4 .............................................
5 .............................................
6 .............................................
7 .............................................
8 .............................................
9 .............................................
0 .............................................
1 .............................................
2 .............................................
3 .............................................

Turn = 10.
  012345678901234567890123456789012345678901234
0 .............................................
1 .............................................
2 .............................................
3 .............................................
4 .............................................
5 ...........t.................................
6 .............................................
7 .............................................
8 .............................................
9 .............................................
0 .............................................
1 .............................................
2 .............................................
3 .............................................
4 .............................................
5 .............................................
6 .............................................
7 .............................................
8 .............................................
9 .............................................
0 .............................................
1 .............................................
2 .............................................
3 .............................................
4 .............................................
5 .............................................
6 .............................................
7 .............................................
8 .............................................
9 .............................................
0 .............................................
1 .............................................
2 .............................................
3 .............................................

Turn = 15.
  012345678901234567890123456789012345678901234
0 .............................................
1 .............................................
2 .............................................
3 .............................................
4 .............................................
5 ...........t.................................
6 .............................................
7 .............................................
8 .............................................
9 .............................................
0 .............................................
1 .............................................
2 .............................................
3 .............................................
4 .............................................
5 .............................................
6 .............................................
7 .............................................
8 .............................................
9 .............................................
0 .............................................
1 .............................................
2 .............................................
3 .............................................
4 .............................................
5 .............................................
6 .............................................
7 .............................................
8 .............................................
9 .............................................
0 .............................................
1 .............................................
2 .............................................
3 .............................................

*** Darwin 24x14 ***
Turn = 0.
  01234567890123
0 ..............
1 ..............
2 ..............
3 ..............
4 ..............
5 ..............
6 ....f.........
7 ....rt........
8 ..............
9 ............t.
0 ..............
1 r.............
2 .h.........hf.
3 ..............
4 ..............
5 ..............
6 ..............
7 ..............
8 ..............
9 ..............
0 ........t.....
1 ..............
2 ..............
3 ..............

Turn = 12.
  01234567890123
0 ..............
1 ..............
2 ..............
3 ..............
4 ..............
5 ..............
6 ....f.........
7 .....t........
8 ..............
9 ............t.
0 ..............
1 ..............
2 h...........f.
3 ..............
4 ..............
5 ..............
6 ..............
7 ..............
8 ..............
9 ...rr.........
0 ........t.....
1 ..............
2 ..............
3 .h............

*** Darwin 41x18 ***
Turn = 0.
  012345678901234567
0 ..................
1 ..................
2 ..................
3 ..................
4 ..................
5 ..................
6 ..................
7 ..................
8 ..................
9 ................r.
0 ..................
1 ..................
2 .......h..........
3 ..................
4 ..................
5 ..................
6 ..................
7 ..................
8 ..................
9 ..t...............
0 ..................
1 ..................
2 ..................
3 ..................
4 ..................
5 .........r........
6 ..................
7 ..................
8 ..................
9 ..................
0 ..................
1 f.................
2 ..................
3 ..................
4 ..................
5 ..................
6 ..................
7 ..................
8 ........f.........
9 ..................
0 ..................

Turn = 3.
  012345678901234567
0 ..................
1 ..................
2 ..................
3 ..................
4 ..................
5 ..................
6 ..................
7 ..................
8 ..................
9 ..................
0 ..................
1 ..................
2 ................r.
3 ..................
4 ..................
5 .......h..........
6 ..................
7 ..................
8 ..................
9 ..t...............
0 ..................
1 ..................
2 ..................
3 ..................
4 ..................
5 ..................
6 ..................
7 ..................
8 .........r........
9 ..................
0 ..................
1 f.................
2 ..................
3 ..................
4 ..................
5 ..................
6 ..................
7 ..................
8 ........f.........
9 ..................
0 ..................

Turn = 6.
  012345678901234567
0 ..................
1 ..................
2 ..................
3 ..................
4 ..................
5 ..................
6 ..................
7 ..................
8 ..................
9 ..................
0 ..................
1 ..................
2 ..................
3 ..................
4 ..................
5 ................r.
6 ..................
7 ..................
8 .......h..........
9 ..t...............
0 ..................
1 ..................
2 ..................
3 ..................
4 ..................
5 ..................
6 ..................
7 ..................
8 ..................
9 ..................
0 ..................
1 f........r........
2 ..................
3 ..................
4 ..................
5 ..................
6 ..................
7 ..................
8 ........f.........
9 ..................
0 ..................

Turn = 9.
  012345678901234567
0 ..................
1 ..................
2 ..................
3 ..................
4 ..................
5 ..................
6 ..................
7 ..................
8 ..................
9 ..................
0 ..................
1 ..................
2 ..................
3 ..................
4 ..................
5 ..................
6 ..................
7 ..................
8 ................r.
9 ..t...............
0 ..................
1 .......h..........
2 ..................
3 ..................
4 ..................
5 ..................
6 ..................
7 ..................
8 ..................
9 ..................
0 ..................
1 f.................
2 ..................
3 ..................
4 .........r........
5 ..................
6 ..................
7 ..................
8 ........f.........
9 ..................
0 ..................

Turn = 12.
  012345678901234567
0 ..................
1 ..................
2 ..................
3 ..................
4 ..................
5 ..................
6 ..................
7 ..................
8 ..................
9 ..................
0 ..................
1 ..................
2 ..................
3 ..................
4 ..................
5 ..................
6 ..................
7 ..................
8 ..................
9 ..t...............
0 ..................
1 ................r.
2 ..................
3 ..................
4 .......h..........
5 ..................
6 ..................
7 ..................
8 ..................
9 ..................
0 ..................
1 f.................
2 ..................
3 ..................
4 ..................
5 ..................
6 ..................
7 .........r........
8 ........f.........
9 ..................
0 ..................

*** Darwin 41x25 ***
Turn = 0.
  0123456789012345678901234
0 .........................
1 .........................
2 ...................h...t.
3 .........................
4 ......................f..
5 .h.......................
6 .........................
7 .........................
8 .........................
9 .........................
0 .........................
1 .........................
2 .................f.......
3 .........................
4 ..................t......
5 .........................
6 .........................
7 .........................
8 .........................
9 .........................
0 .........................
1 .........................
2 .........................
3 .........................
4 .........................
5 ..........rr.............
6 ...................f.....
7 .........................
8 .........................
9 .........................
0 .........................
1 .........................
2 .........................
3 .........................
4 ..f......................
5 ....h....................
6 .........................
7 .........................
8 .........................
9 .........................
0 .........................

Turn = 11.
  0123456789012345678901234
0 ...................h.....
1 .........................
2 .......................t.
3 .........................
4 ......................f..
5 h........................
6 .........................
7 .........................
8 .........................
9 .........................
0 .........................
1 .........................
2 .................f.......
3 .........................
4 ...........r......t......
5 .........................
6 .........................
7 .........................
8 .........................
9 .........................
0 .........................
1 .........................
2 .........................
3 .........................
4 .........................
5 .........................
6 ...................f.....
7 .........................
8 .........................
9 .........................
0 .........................
1 .........................
2 .........................
3 .........................
4 ..f......................
5 ...............h.........
6 ..........r..............
7 .........................
8 .........................
9 .........................
0 .........................
