*** Darwin 8x8 ***
Turn = 0.
  01234567
0 f.......
1 ........
2 ........
3 ...hh...
4 ...hh...
5 ........
6 ........
7 .......f

Turn = 1.
  01234567
0 f.......
1 ........
2 ...h....
3 .....h..
4 ..h.....
5 ....h...
6 ........
7 .......f

Turn = 2.
  01234567
0 f.......
1 ...h....
2 ........
3 ......h.
4 .h......
5 ........
6 ....h...
7 .......f

Turn = 3.
  01234567
0 f..h....
1 ........
2 ........
3 .......h
4 h.......
5 ........
6 ........
7 ....h..f

Turn = 4.
  01234567
0 f..h....
1 ........
2 ........
3 .......h
4 h.......
5 ........
6 ........
7 ....h..f

Turn = 5.
  01234567
0 f..h....
1 ........
2 ........
3 .......h
4 h.......
5 ........
6 ........
7 ....h..f

*** Darwin 7x9 ***
Turn = 0.
  012345678
0 t........
1 .........
2 .........
3 ..h......
4 .........
5 ....r....
6 ........t

Turn = 1.
  012345678
0 t........
1 .........
2 .........
3 ...h.....
4 ....r....
5 .........
6 ........t

Turn = 2.
  012345678
0 t........
1 .........
2 .........
3 ....r....
4 ....r....
5 .........
6 ........t

Turn = 3.
  012345678
0 t........
1 .........
2 .........
3 ....rr...
4 .........
5 .........
6 ........t

Turn = 4.
  012345678
0 t........
1 .........
2 ....r....
3 ......r..
4 .........
5 .........
6 ........t

Turn = 5.
  012345678
0 t........
1 ....r....
2 .........
3 .......r.
4 .........
5 .........
6 ........t

*** Darwin 6x6 ***
Turn = 0.
  012345
0 ......
1 hf....
2 ...t..
3 ..h.h.
4 .t.f..
5 ......

Turn = 1.
  012345
0 ......
1 hf....
2 ...t..
3 ......
4 .ttfh.
5 ......

Turn = 2.
  012345
0 ......
1 hf....
2 ...t..
3 ......
4 .ttf..
5 ....h.

Turn = 3.
  012345
0 ......
1 hf....
2 ...t..
3 ......
4 .ttt..
5 ....h.

*** Darwin 8x8 ***
Turn = 0.
  01234567
0 ........
1 .t..rf..
2 ...f....
3 .fh.....
4 ......t.
5 ....f...
6 ..t..h..
7 r.......

Turn = 5.
  01234567
0 ..h.....
1 .t...f..
2 ...f....
3 .f......
4 ......t.
5 ....r...
6 ..thr...
7 .....r..

*** Darwin 10x10 ***
Turn = 0.
  0123456789
0 ..........
1 ...t....h.
2 .......f..
3 ...t..h...
4 .....f....
5 ...f......
6 ..........
7 ..r...r...
8 ..........
9 .......r..

Turn = 1.
  0123456789
0 ..........
1 ...t......
2 .......fh.
3 ...t...h..
4 .....f....
5 ...f......
6 ......r...
7 ..........
8 ..r.......
9 ........r.

Turn = 2.
  0123456789
0 ..........
1 ...t......
2 .......f..
3 ...t...hh.
4 .....f....
5 ...f..r...
6 ..........
7 ..........
8 ..........
9 ..r......r

Turn = 3.
  0123456789
0 ..........
1 ...t......
2 .......f..
3 ...t...h..
4 .....fr.h.
5 ...f......
6 ..........
7 ..........
8 ..........
9 ..r......r

Turn = 4.
  0123456789
0 ..........
1 ...t......
2 .......f..
3 ...t..r.h.
4 .....f....
5 ...f....h.
6 ..........
7 ..........
8 .........r
9 .r........

Turn = 5.
  0123456789
0 ..........
1 ...t......
2 ......rf..
3 ...t.....h
4 .....f....
5 ...f......
6 ........h.
7 .........r
8 ..........
9 r.........

Turn = 6.
  0123456789
0 ..........
1 ...t..r...
2 .......f..
3 ...t.....h
4 .....f....
5 ...f......
6 .........r
7 ........h.
8 ..........
9 r.........

Turn = 7.
  0123456789
0 ......r...
1 ...t......
2 .......f..
3 ...t.....h
4 .....f....
5 ...f.....r
6 ..........
7 ..........
8 r.......h.
9 ..........

Turn = 8.
  0123456789
0 ......r...
1 ...t......
2 .......f..
3 ...t.....h
4 .....f...r
5 ...f......
6 ..........
7 r.........
8 ..........
9 ........h.

Turn = 9.
  0123456789
0 .......r..
1 ...t......
2 .......f..
3 ...t.....r
4 .....f...r
5 ...f......
6 r.........
7 ..........
8 ..........
9 ........h.

Turn = 10.
  0123456789
0 ........r.
1 ...t......
2 .......f..
3 ...t.....r
4 .....f...r
5 r..f......
6 ..........
7 ..........
8 ..........
9 ........h.

*** Darwin 8x10 ***
Turn = 0.
  0123456789
0 ..........
1 ..........
2 .......f..
3 ..t.hf....
4 ........r.
5 ..f.......
6 ...r......
7 ..........

Turn = 4.
  0123456789
0 ..........
1 ..........
2 .......f..
3 ..t..f....
4 ....r.....
5 ..f.......
6 ..........
7 .r..h.....

Turn = 8.
  0123456789
0 ..........
1 ..........
2 .......f..
3 ..t..f....
4 r.........
5 ..f.......
6 ..........
7 r...h.....

*** Darwin 2x10 ***
Turn = 0.
  0123456789
0 .hr.f.....
1 ...t..rrft

Turn = 3.
  0123456789
0 h..tt..r..
1 ...t..r.tt

Turn = 6.
  0123456789
0 h..tt....t
1 ...tt...tt

Turn = 9.
  0123456789
0 h..tt....t
1 ...tt...tt

*** Darwin 10x10 ***
Turn = 0.
  0123456789
0 ...h..f...
1 ...t..r...
2 h....f....
3 .r.....t..
4 ...f.....h
5 ......t..r
6 h....f....
7 ..r..t....
8 h...f.....
9 .t..r.....

Turn = 5.
  0123456789
0 rr.t..f...
1 ..r.......
2 .....f....
3 ...r...t..
4 ...f.....h
5 ......t...
6 r....t....
7 r....t....
8 ....f.....
9 tt......rr

Turn = 10.
  0123456789
0 rr.t..f...
1 r.........
2 r....f....
3 .......t..
4 .........h
5 r.....t..r
6 .....t....
7 ...rr.r...
8 ....f.....
9 tt..r.....

Turn = 15.
  0123456789
0 r..t..f...
1 ....rr....
2 r...r.....
3 .......t..
4 ..........
5 ......t..r
6 .....t...r
7 .....t....
8 rr..f....r
9 rrr.......

Turn = 20.
  0123456789
0 ...tt.f...
1 ..........
2 .........r
3 rr.....t..
4 ..........
5 r...r.t...
6 r...rr....
7 .....t....
8 r...f....r
9 ....r..r.r

*** Darwin 5x5 ***
Turn = 0.
  01234
0 ..t..
1 t.r.f
2 t....
3 .r.rt
4 ...tf

Turn = 5.
  01234
0 ..t..
1 t...r
2 t..r.
3 ...rr
4 r..rr

Turn = 10.
  01234
0 ..trr
1 t...r
2 tt..r
3 .t...
4 ...r.

*** Darwin 3x3 ***
Turn = 0.
  012
0 .rt
1 t..
2 r..

Turn = 1.
  012
0 .rr
1 t..
2 t..

Turn = 2.
  012
0 .rr
1 t..
2 t..

Turn = 3.
  012
0 .rr
1 t..
2 t..

Turn = 4.
  012
0 .r.
1 t.r
2 t..

Turn = 5.
  012
0 ...
1 tr.
2 t.r

Turn = 6.
  012
0 ...
1 t..
2 trr

Turn = 7.
  012
0 ...
1 t..
2 trr

Turn = 8.
  012
0 ...
1 t..
2 ttt
